IS415-GAA - swoh - Hands-On Exercise 2
…
  # View selected fields
  select(
    `PA`, `SZ`, `YOUNG`,
    `ECONOMY_ACTIVE`, `AGED`, `TOTAL`,
    `DEPENDENCY`
  )

`summarise()` has grouped output by 'PA', 'SZ'. You can override using the
`.groups` argument.

population_data_2020

# A tibble: 332 × 7
   PA         SZ                     YOUNG ECONOMY_ACTIVE  AGED TOTAL DEPENDENCY
   <chr>      <chr>                  <dbl>          <dbl> <dbl> <dbl>      <dbl>
 1 Ang Mo Kio Ang Mo Kio Town Centre  1290           2760  2050  6100       1.21
 2 Ang Mo Kio Cheng San               5640          16460 11690 33790       1.05
 3 Ang Mo Kio Chong Boon              5100          15000 11570 31670       1.11
 4 Ang Mo Kio Kebun Bahru             4620          13010  9740 27370       1.10
 5 Ang Mo Kio Sembawang Hills         1880           3630  3190  8700       1.40
 6 Ang Mo Kio Shangri-La              3330           9050  6940 19320       1.13
 7 Ang Mo Kio Tagore                  1940           4480  3470  9890       1.21
 8 Ang Mo Kio Townsville              4190          11950  9290 25430       1.13
 9 Ang Mo Kio Yio Chu Kang               0              0     0     0     NaN   
10 Ang Mo Kio Yio Chu Kang East       1110           2410  1860  5380       1.23
# ℹ 322 more rows
…
