IS415-GAA - swoh - Hands-On Exercise 1
…
[1] "package:readr"

listings <- read_csv(
  "data/aspatial/listings.csv",
  show_col_types = FALSE
)
find("list")

[1] "package:base"

list(listings)

[[1]]
# A tibble: 3,540 × 18
       id name      host_id host_name neighbourhood_group neighbourhood latitude
    <dbl> <chr>       <dbl> <chr>     <chr>               <chr>            <dbl>
 1  71609 Ensuite …  367042 Belinda   East Region         Tampines          1.35
 2  71896 B&B  Roo…  367042 Belinda   East Region         Tampines          1.35
 3  71903 Room 2-n…  367042 Belinda   East Region         Tampines          1.35
 4 275343 10min wa… 1439258 Kay       Central Region      Bukit Merah       1.29
 5 275344 15 mins … 1439258 Kay       Central Region      Bukit Merah       1.29
 6 289234 Booking …  367042 Belinda   East Region         Tampines          1.34
 7 294281 5 mins w… 1521514 Elizabeth Central Region      Newton            1.31
 8 324945 Comforta… 1439258 Kay       Central Region      Bukit Merah       1.29
 9 330095 Relaxing… 1439258 Kay       Central Region      Bukit Merah       1.29
10 344803 Budget s…  367042 Belinda   East Region         Tampines          1.35
# ℹ 3,530 more rows
# ℹ 11 more variables: longitude <dbl>, room_type <chr>, price <dbl>,
#   minimum_nights <dbl>, number_of_reviews <dbl>, last_review <date>,
#   reviews_per_month <dbl>, calculated_host_listings_count <dbl>,
#   availability_365 <dbl>, number_of_reviews_ltm <dbl>, license <chr>
…
